1.U8glib文件夹是库文件，请将其放入"libraries"文件夹内；
2.Demo文件夹里面为演示程序，正确接线并下载到Arduino板子上即可。
3.接线方式：
--------------------------------------
SPI：
GND              地
VCC              3.3V或者5V

13		=	SCL
11		=	SDA
9		=	DC
REST		=	RES
-----------------------------------

4.Compile and download