:100000000C9434000C9481000C94B2000C94E40025
:100010000C944F000C9451000C944F000C944F0022
:100020000C944F000C944F000C944F000C944F0014
:100030000C944F000C944F000C944F000C944F0004
:100040000C944F000C944F000C944F000C944F00F4
:100050000C944F000C944F000C944F000C944F00E4
:100060000C944F000C944F0011241FBECFEFD4E02E
:10007000DEBFCDBF11E0A0E0B1E0E6E6F9E102C0ED
:1000800005900D92A230B107D9F711E0A2E0B1E0DE
:1000900001C01D92A039B107E1F70C94EA0B0C9452
:1000A00000001F920F920FB60F9211242F933F93CF
:1000B0008F939F9389B1869580FF09C080918400BA
:1000C00090918500909365018093640111C08091A7
:1000D0008400909185002091640130916501821B1C
:1000E000930B90937F0180937E0188EC80930301B2
:1000F0009F918F913F912F910F900FBE0F901F9066
:1001000018951F920F920FB60F9211242F933F93C1
:100110008F939F9389B18695869580FF09C08091C2
:10012000840090918500909336018093350111C031
:1001300080918400909185002091350130913601A5
:10014000821B930B90935A018093590188EC809302
:1001500004019F918F913F912F910F900FBE0F90AF
:100160001F9018951F920F920FB60F9211242F9384
:100170003F938F939F9389B186958695869580FF4F
:1001800009C0809184009091850090934E018093E6
:100190004D0111C0809184009091850020914D0106
:1001A00030914E01821B930B9093770180937601DF
:1001B00088EC809305019F918F913F912F910F9033
:1001C0000FBE0F901F9018951F920F920FB60F92AF
:1001D00011242F933F938F939F931F9B09C080916E
:1001E00084009091850090936D0180936C0111C003
:1001F000809184009091850020916C0130916D0177
:10020000821B930B90933C0180933B0188EC80937D
:1002100006019F918F913F912F910F900FBE0F90EC
:100220001F9018958FE380937E0010927B000895B5
:1002300081E080938501809386011092870120EFF1
:1002400035E0309389012093880130938B0120930E
:100250008A0180E694E090938D0180938C01309325
:100260008F0120938E010895FF920F931F93CF93D8
:10027000DF9380910701882309F44FC180913201F7
:100280009091330197FF05C0109233011092320113
:1002900009C08536910534F084E690E090933301EF
:1002A00080933201809143019091440197FF05C0F2
:1002B000109244011092430109C08536910534F033
:1002C00084E690E0909344018093430180915D0126
:1002D00090915E0197FF05C010925E0110925D0142
:1002E00009C08536910534F084E690E090935E0174
:1002F00080935D01809151019091520197FF05C05B
:10030000109252011092510109C08536910534F0C6
:1003100084E690E0909352018093510180917C019A
:1003200090917D0197FF05C010927D0110927C0194
:1003300009C08536910534F084E690E090937D0104
:1003400080937C0180916E0190916F0197FF05C0B1
:1003500010926F0110926E0109C08536910534F03C
:1003600084E690E090936F0180936E018091840009
:10037000909185002091110130911201821B930B05
:1003800090931401809313016AE070E00E94360C90
:10039000F62EF394F09219012F2D332727FD309577
:1003A00084E690E0821B930B9093160180931501D5
:1003B000C0913201D0913301C80FD91FD0933301BE
:1003C000C0933201A0914301B0914401A80FB91F1D
:1003D000B0934401A0934301E0915D01F0915E016F
:1003E000E80FF91FF0935E01E0935D016091510108
:1003F00070915201680F791F7093520160935101FF
:1004000040917C0150917D01480F591F50937D010F
:1004100040937C0120916E0130916F01280F391FAC
:1004200030936F0120936E01A89816BCF0921001D2
:1004300087EC8F1508F450C08E01ED01DF01FB0140
:10044000BA01A9012F2D86B58035E8F386B5805510
:1004500086BD0115110521F00150104009F42A98BC
:10046000209719F0219709F42998109719F01197FE
:1004700009F42898309719F0319709F45F986115BD
:10048000710521F06150704009F45E9841155105E5
:1004900021F04150504009F45D98822F8F5F282F42
:1004A000883C88F28093100150936F0140936E0155
:1004B00070937D0160937C01F0935201E0935101B0
:1004C000B0935E01A0935D01D0934401C0934301BA
:1004D000109333010093320180910001909101014A
:1004E000A89816BC029790931801809317012FEFDC
:1004F0008F3F920791F09C0186B58035E8F386B571
:10050000805586BDC90101979C014FEF8F3F94072D
:1005100099F79093180180931701809163018823C4
:1005200011F1809184009091850090931201809345
:10053000110151E0509307012A9A299A40911A011A
:10054000242F332780910E0190910F01281739072E
:1005500039F4289A5F9A5E9A5D9A50931A0103C003
:100560004F5F40931A01DF91CF911F910F91FF9040
:10057000089580937C0083EC80937A0080917A00C8
:1005800086FDFCCF089582E00E94B9028091780038
:10059000909179002091080130910901821B930B01
:1005A00090932B0180932A0181E00E94B9028091EF
:1005B00078009091790020910A0130910B01821B03
:1005C000930B90932D0180932C0180E00E94B9023F
:1005D000809178009091790020910C0130910D016B
:1005E000821B930B90932F0180932E010895EF921D
:1005F000FF920F931F9383E00E94B90280917800CD
:10060000909179000FEF13E09801281B390BC90175
:1006100030936701209366012AE0E22EF12CB701A6
:100620000E94360C709354016093530184E00E9441
:10063000B90280917800909179009801281B390BBC
:10064000C9013093690120936801B7010E94360CFB
:10065000709356016093550185E00E94B902809124
:10066000780090917900081B190BC80110936B0159
:1006700000936A01B7010E94360C70935801609391
:1006800057011F910F91FF90EF90089582E00E9413
:10069000B9028091780090917900909371018093D4
:1006A000700181E00E94B9028091780090917900F8
:1006B000909373018093720180E00E94B90280914F
:1006C000780090917900909375018093740108955A
:1006D000CF930E94F7021092090110920801109224
:1006E0000B0110920A0110920D0110920C01CFE142
:1006F0000E94460360910801709109018091700188
:1007000090917101680F791F70930901609308013E
:1007100040910A0150910B018091720190917301F7
:10072000480F591F50930B0140930A0120910C016F
:1007300030910D018091740190917501280F391F3E
:1007400030930D0120930C01C150C7FFD1CFE5E0DC
:1007500075956795EA95E1F7709309016093080133
:1007600065E0559547956A95E1F750930B014093E5
:100770000A0145E0359527954A95E1F730930D013B
:1007800020930C0110924C0110924B0181E0809358
:10079000340182E390E09093790180937801909303
:1007A0007B0180937A01CF9108959C01DC010E9426
:1007B0009A0C802D861721F0D901062E0E94A70CD5
:1007C0000895CF92DF92EF92FF920F931F93CF93F2
:1007D000DF936C01EB017A0100E010E004171507CC
:1007E00060F4F60161916F01CE010E94D50321965C
:1007F0000F5F1F4F0E151F05A0F3DF91CF911F91C3
:100800000F91FF90EF90DF90CF900895F8944CE017
:1008100050E06AE070E084E891E00E94E10378949F
:100820000895AAE0B0E00E949A0C802D873441F030
:1008300087E4809384010E9418010E9406040895B1
:10084000E4E8F1E0AAE0B0E08CE0182E0E94A20CEF
:10085000089581508F3F41F000000000000000002B
:10086000000000000000F5CF08951F93CF93DF93A1
:10087000EC0121978FEFCF3FD80761F019E084E6B4
:100880000E942904115017FFFACF21978FEFCF3F15
:10089000D807A1F7DF91CF911F9108959C016115B1
:1008A000710509F40895FC01E61BF70B4E175F076D
:1008B00024F4CB01840F951F089588279927841B62
:1008C000950BE817F90724F4CB01841B950B0895C9
:1008D000C901860F971F959587950895809103010B
:1008E000882329F080910301815080930301809136
:1008F0000401882329F08091040181508093040130
:1009000080910501882329F0809105018150809311
:10091000050180910601882329F08091060181500C
:100920008093060180910301882329F410923E01EF
:1009300010923D0122C080917E0190917F01209113
:10094000880130918901821B930B90931C01809345
:100950001B0142E350E06091800170918101959507
:100960008795959587950E944E0490933E018093BC
:100970003D0190938101809380018091040188233F
:1009800029F4109262011092610122C080915901F4
:1009900090915A0120918A0130918B01821B930B17
:1009A00090931C0180931B0142E350E06091280169
:1009B0007091290195958795959587950E944E048C
:1009C00090936201809361019093290180932801A3
:1009D00080910501882329F41092250110922401A9
:1009E00023C0809176019091770120918C01309104
:1009F0008D01821B930B90931C0180931B0142E39A
:100A000050E06091300170913101B3E09595879588
:100A1000BA95E1F70E944E0490932501809324013A
:100A2000909331018093300180910601882329F44D
:100A30001092400110923F0122C080913B019091A1
:100A40003C0120918E0130918F01821B930B90937A
:100A50001C0180931B0142E350E060914F017091B3
:100A6000500195958795959587950E944E04909392
:100A7000400180933F019093500180934F018091FA
:100A80006101909162019093420180934101089528
:100A9000EF92FF920F931F93CF93DF9310928901F0
:100AA0001092880110928B0110928A0110928F018E
:100AB00010928E01C0E0D0E07E018E010E946E0493
:100AC00085B1829586958695837080958170829593
:100AD000880F880F807C95B19F7B982B95B913C0A8
:100AE00085B1829586958695837080958170829573
:100AF000880F880F807C95B19F7B982B95B982E3F6
:100B000090E00E9435048091590190915A01805FD4
:100B1000954097FF03C0909581959F4F8937910528
:100B2000FCF62E9880ED97E00E9435042FE030E02F
:100B300080917E0190917F01080F191F80915901CA
:100B400090915A01E80EF91E80913B0190913C0171
:100B5000C80FD91F2150304037FFEACF64E0169507
:100B600007956A95E1F7109389010093880154E095
:100B7000F694E7945A95E1F7F0928B01E0928A019E
:100B800080E694E090938D0180938C0144E0D695AB
:100B9000C7954A95E1F7D0938F01C0938E010E94CB
:100BA00006040E946E042E9A86E990E00E943504A5
:100BB0002E98DF91CF911F910F91FF90EF900895A4
:100BC000CF92DF92EF92FF920F931F93CF93DF9319
:100BD0000E946E048091240190912501309163015F
:100BE00097FFF2C12091B20080912001281B8091D3
:100BF0001E0190911F01820F911D90931F01809300
:100C00001E018091B200809320012091B20080915A
:100C10002101281B8091260190912701820F911DAF
:100C200090932701809326018091B2008093210147
:100C3000332359F080913F0190914001855C9F4F93
:100C400024F0109223011092220180913F01909193
:100C50004001332371F4CC9724F18091610190918C
:100C6000620197FF03C0909581959F4F8997ECF0A3
:100C700018C0855C9F4F5CF4809161019091620186
:100C800097FF03C0909581959F4F899724F010920C
:100C90001F0110921E018091220190912301892B46
:100CA00021F010921F0110921E0180911E0190915F
:100CB0001F0183549F4070F180E0332309F481E0E9
:100CC000809363012E9810928301109282018823F1
:100CD000D9F00E946803109207012E9A80910201B8
:100CE000882319F084E690E002C08CE390E09093B2
:100CF0005C0180935B019093460180934501909342
:100D0000600180935F01D2C380910701882309F4B9
:100D1000CDC3CAC3332309F461C080913F019091D0
:100D20004001845C9F4F0CF059C08091610190910B
:100D30006201CD970CF452C08091820190918301A1
:100D4000892B09F042C08FE69EEF90938301809338
:100D500082010E9468031092070186E990E00E94D8
:100D6000350420910201222379F084E690E09093EB
:100D70005C0180935B0190934601809345019093C1
:100D8000600180935F0121C08CE390E090935C014F
:100D900080935B019093460180934501909360019D
:100DA00080935F0120931D012E9889E190E00E94BD
:100DB00035042E9A89E190E00E94350480911D014E
:100DC0008F5F80931D01882379F380918201909138
:100DD0008301019690938301809382018091630146
:100DE000882309F462C080913F0190914001845CA6
:100DF0009F4F0CF05AC08091610190916201845C18
:100E00009F4F0CF052C08091820190918301892BF9
:100E100009F042C08FE69EEF909383018093820198
:100E20000E9468031092070184E690E00E94350456
:100E300020910201222379F084E690E090935C01F6
:100E400080935B01909346018093450190936001EC
:100E500080935F0121C080E590E090935C018093D6
:100E60005B019093460180934501909360018093CC
:100E70005F0120931D012E9889E190E00E943504C6
:100E80002E9A89E190E00E94350480911D018F5FC8
:100E900080931D01823078F38091820190918301CB
:100EA000019690938301809382018091630188234E
:100EB00009F45FC080913F0190914001CD970CF4FF
:100EC00058C08091610190916201845C9F4F0CF049
:100ED00050C08091820190918301892B09F040C01C
:100EE0008FE69EEF90938301809382010E946803B6
:100EF0001092070120910201222379F084E690E00C
:100F000090935C0180935B0190934601809345012F
:100F10009093600180935F0123C08CE390E09093F5
:100F20005C0180935B01909346018093450184E6C8
:100F300090E09093600180935F0120931D012E98B3
:100F400089E190E00E9435042E9A89E190E00E94A8
:100F5000350480911D018F5F80931D01843078F3EB
:100F600080918201909183010196909383018093F7
:100F70008201809163018823A9F4809159019091A5
:100F80005A018950974070F080913B0190913C014B
:100F90008B55954038F080913B0190913C018658EB
:100FA000964020F010922701109226018091260190
:100FB000909127018E589B45F0F0109227011092D6
:100FC00026010E94480517C0332389F080913F0114
:100FD00090914001845C9F4F54F480912201909144
:100FE00023010196909323018093220104C0109263
:100FF0002301109222010E94C3028091240190914A
:1010000025018036910534F08FE590E0909325011D
:1010100080932401C0902401D0902501D092330107
:10102000C0923201D0924401C092430182E390E029
:1010300090935E0180935D019093520180935101E2
:1010400090937D0180937C0190936F0180936E015A
:1010500080912A0190912B017C010027F7FC0095DB
:10106000102F80915301909154019C0144275527E2
:10107000C801B7010E94170CDC01CB01C2E0880F48
:10108000991FAA1FBB1FCA95D1F7BC01CD012AEF3A
:1010900030E040E050E00E945D0CFA01E901C03B05
:1010A0003FEFD3073FEFE3073FEFF3072CF4C0EB2D
:1010B000DFEFEFEFFFEF09C0C135D105E105F10525
:1010C00024F0C0E5D0E0E0E0F0E0D0932B01C09345
:1010D0002A0180913D0190913E0120915B01309168
:1010E0005C01829FA001839F500D929F500D11249F
:1010F000CA0164E670E00E944A0C70933E0160935E
:101100003D0180918501882341F4CE01860F971F10
:1011100090933E0180933D0106C06C1B7D0B709344
:101120003E0160933D0120913D0130913E0184E1FB
:1011300090E0289FA001299F500D389F500D112449
:10114000CA0167E170E00E944A0C70933E0160930F
:101150003D018091320190913301860F971F90934A
:101160003301809332018091430190914401861BA9
:10117000970B909344018093430180912C019091AF
:101180002D017C010027F7FC0095102F809155015F
:10119000909156019C0144275527C801B7010E9430
:1011A000170CDC01CB01F2E0880F991FAA1FBB1FAF
:1011B000FA95D1F7BC01CD012AEF30E040E050E0D4
:1011C0000E945D0CFA01E901C03B5FEFD5075FEFBC
:1011D000E5075FEFF5072CF4C0EBDFEFEFEFFFEF74
:1011E00009C0C135D105E105F10524F0C0E5D0E025
:1011F000E0E0F0E0D0932D01C0932C0180916101DB
:10120000909162010091450110914601809F9001EB
:10121000819F300D909F300D1124C90164E670E06C
:101220000E944A0C70936201609361018091860173
:10123000882341F4CE01860F971F9093620180931B
:10124000610106C06C1B7D0B7093620160936101AC
:101250008091610190916201209178013091790132
:10126000821B930B9093620180936101280F391FB9
:10127000309379012093780180915D0190915E0116
:10128000820F931F90935E0180935D0180915101C5
:1012900090915201821B930B9093520180935101C4
:1012A0008091410190914201809FA001819F500D4A
:1012B000909F500D1124CA0164E670E00E944A0C10
:1012C00077FF03C0709561957F4F709342016093E3
:1012D000410180917C0190917D01860F971F909331
:1012E0007D0180937C0180916E0190916F01861B3E
:1012F000970B90936F0180936E0180912E019091D6
:101300002F017C010027F7FC0095102F80915701D9
:10131000909158019C0144275527C801B7010E94AC
:10132000170CDC01CB01E2E0880F991FAA1FBB1F3D
:10133000EA95D1F7BC01CD012AEF30E040E050E062
:101340000E945D0CFA01E901C03B5FEFD5075FEF3A
:10135000E5075FEFF5072CF4C0EBDFEFEFEFFFEFF2
:1013600009C0C135D105E105F10524F0C0E5D0E0A3
:10137000E0E0F0E0D0932F01C0932E0180913F0177
:101380009091400120915F0130916001829FA00106
:10139000839F500D929F500D1124CA0164E670E0A6
:1013A0000E944A0C7093400160933F018091870135
:1013B000882341F4CE01860F971F909340018093BC
:1013C0003F0106C06C1B7D0B7093400160933F0191
:1013D00080913F019091400120917A0130917B01F1
:1013E000821B930B9093400180933F01820F931FC8
:1013F00090937B0180937A019C013595279580918C
:101400005D0190915E01821B930B90935E0180932E
:101410005D018091510190915201821B930B909339
:1014200052018093510180913201909133010A97CA
:1014300034F48AE090E090933301809332018091FC
:101440004301909144010A9734F48AE090E090932C
:101450004401809343011C141D0444F480916301F2
:10146000882321F0809134018823D1F41092330134
:1014700010923201109244011092430182E390E0F5
:1014800090935E0180935D0190935201809351018E
:1014900090937D0180937C0190936F0180936E0106
:1014A00080916301882311F00E943401DF91CF9174
:1014B0001F910F91FF90EF90DF90CF900895CF9202
:1014C000DF92EF92FF920F931F93CF93DF9385B735
:1014D000806185BF5198529853982798599A5A9A83
:1014E0005B9A2F9A389839983A983D983C983B984F
:1014F000229A219A209A579A569A559A269A2E9865
:1015000049984A984B981F98809168008160809311
:1015100068008091680084608093680080916B000F
:10152000806880936B0080916D00826080936D0075
:1015300085E08093690083E08DBB8CB383608CBBB6
:1015400014BC81E085BD10926E001092800082E094
:10155000809381001092B00087E08093B1001092D8
:10156000700017BA1092B20010920F0110920E0183
:1015700020E030E02F5F3F4F8FEE91E0B9010E94F5
:10158000360C63337105B0F730930F0120930E01D1
:1015900082E390E0909379018093780190937B01AE
:1015A00080937A010E9411040E941201109234016A
:1015B00010926301809188019091890190937F013D
:1015C00080937E0180918A0190918B0190935A01C2
:1015D0008093590180918C0190918D0190937701B6
:1015E0008093760180918E0190918F0190933C01C0
:1015F00080933B012E9A86E990E00E9435042E9854
:1016000078948CED95E00E9435040E94F7020E94C8
:10161000F702209168013091690123333105B8F454
:101620008091660190916701C39788F480916A0167
:1016300090916B01C39758F40E9418010E94060410
:101640002E9A86E990E00E9435042E98FFCF23332E
:10165000310508F05BC01092890110928801109248
:101660008B0110928A0110928F0110928E01C2E0BC
:10167000D0E02E9A89E190E00E9435042E9889E10D
:1016800090E00E9435042197D7FFF3CF88EB9BE0D1
:101690000E94350400E010E068017801C3E0D0E06A
:1016A0000E946E0480913D0190913E01E80EF91E6A
:1016B0008091610190916201C80ED91E80913F0115
:1016C00090914001080F191F84E690E00E943504B4
:1016D0002197D7FFE5CFF0928901E0928801D0925F
:1016E0008B01C0928A0180E694E090938D018093F3
:1016F0008C0110938F0100938E010E9406042E9A94
:1017000086E990E00E9435042E98FFCF80916A010F
:1017100090916B01C39708F054C0C2E0D0E02E9ABC
:1017200089E190E00E9435042E9889E190E00E94C2
:1017300035042197D7FFF3CF8AEC98E00E94350457
:10174000C2E0D0E02E9A89E190E00E9435042E9804
:1017500089E190E00E9435042197D7FFF3CF81E023
:101760008093630188E097E09093010180930001EA
:1017700081E090E090930F0180930E010E946E042F
:10178000809124019091250190933301809332013F
:10179000909344018093430182E390E090935E0133
:1017A00080935D01909352018093510190937D014C
:1017B00080937C0190936F0180936E010E943401AD
:1017C000DDCFDF91CF911F910F91FF90EF90DF90D0
:1017D000CF900895CFEFD4E0DEBFCDBF0E945F0A67
:1017E000C0E01C2F0E946E048091760190917701D9
:1017F0008855924070F480917601909177018159DB
:10180000914038F01F5F2E9A81E090E00E943504ED
:101810002E98153620F081E08093020102C01092CC
:101820000201CF5FC83CF0F20E94E005FDCF629F4D
:10183000D001739FF001829FE00DF11D649FE00DC8
:10184000F11D929FF00D839FF00D749FF00D659F29
:10185000F00D9927729FB00DE11DF91F639FB00D28
:10186000E11DF91FBD01CF0111240895AA1BBB1B67
:1018700051E107C0AA1FBB1FA617B70710F0A61B90
:10188000B70B881F991F5A95A9F780959095BC01B1
:10189000CD01089597FB092E07260AD077FD04D0C5
:1018A000E5DF06D000201AF4709561957F4F08950A
:1018B000F6F7909581959F4F089597FB092E052681
:1018C0000ED057FD04D014D00AD0001C38F4509527
:1018D0004095309521953F4F4F4F5F4F0895F6F754
:1018E00090958095709561957F4F8F4F9F4F08958C
:1018F000A1E21A2EAA1BBB1BFD010DC0AA1FBB1F14
:10190000EE1FFF1FA217B307E407F50720F0A21B85
:10191000B30BE40BF50B661F771F881F991F1A94F2
:1019200069F760957095809590959B01AC01BD011C
:10193000CF010895F999FECFB2BDA1BDF89A1196D5
:1019400000B40895F7DF01921A94E1F70895F99928
:10195000FECFB2BDA1BD00BC11960FB6F894FA9AA5
:06196000F99A0FBE089584
:0219660002007D
:00000001FF
