1. 上网连接服务器
AT            //返回OK,表示模块串口工作正常
ATE0          //返回OK，关闭回显


AT+CGATT=1   //返回OK，附着网络
AT+CGACT=1,1 //激活网络，之后就可以使用tcpip的指令了

AT+CIPSTART="TCP","121.41.97.28",60000 //连接TCPIP服务器
AT+CIPSEND=20         //返回>,就可以输入要发送的内容20表示有20个字节,该命令可以透传数据到服务器
AT+CIPCLOSE           //关闭TCPIP连接
+CIPRCV:5,12345       //收到服务器返回的5个字节
